^E:\PROJECTS\GEMIX\GEMIX\IMAGEPROPS.CPP
/c /ZI /nologo /W3 /WX- /diagnostics:classic /Od /Oy- /D WIN32 /D _DEBUG /D _CONSOLE /D _MBCS /Gm /EHsc /RTC1 /MDd /GS /fp:precise /Zc:wchar_t /Zc:forScope /Zc:inline /Fo"DEBUG\\" /Fd"DEBUG\VC141.PDB" /Gd /TP /analyze- E:\PROJECTS\GEMIX\GEMIX\IMAGEPROPS.CPP
^E:\PROJECTS\GEMIX\GEMIX\IMAGETRANFORMATIONS.CPP
/c /ZI /nologo /W3 /WX- /diagnostics:classic /Od /Oy- /D WIN32 /D _DEBUG /D _CONSOLE /D _MBCS /Gm /EHsc /RTC1 /MDd /GS /fp:precise /Zc:wchar_t /Zc:forScope /Zc:inline /Fo"DEBUG\\" /Fd"DEBUG\VC141.PDB" /Gd /TP /analyze- E:\PROJECTS\GEMIX\GEMIX\IMAGETRANFORMATIONS.CPP
^E:\PROJECTS\GEMIX\GEMIX\MASTER.CPP
/c /ZI /nologo /W3 /WX- /diagnostics:classic /Od /Oy- /D WIN32 /D _DEBUG /D _CONSOLE /D _MBCS /Gm /EHsc /RTC1 /MDd /GS /fp:precise /Zc:wchar_t /Zc:forScope /Zc:inline /Fo"DEBUG\\" /Fd"DEBUG\VC141.PDB" /Gd /TP /analyze- E:\PROJECTS\GEMIX\GEMIX\MASTER.CPP
^E:\PROJECTS\GEMIX\GEMIX\TEXTURES.CPP
/c /ZI /nologo /W3 /WX- /diagnostics:classic /Od /Oy- /D WIN32 /D _DEBUG /D _CONSOLE /D _MBCS /Gm /EHsc /RTC1 /MDd /GS /fp:precise /Zc:wchar_t /Zc:forScope /Zc:inline /Fo"DEBUG\\" /Fd"DEBUG\VC141.PDB" /Gd /TP /analyze- E:\PROJECTS\GEMIX\GEMIX\TEXTURES.CPP
^E:\PROJECTS\GEMIX\GEMIX\TOOLBAR.CPP
/c /ZI /nologo /W3 /WX- /diagnostics:classic /Od /Oy- /D WIN32 /D _DEBUG /D _CONSOLE /D _MBCS /Gm /EHsc /RTC1 /MDd /GS /fp:precise /Zc:wchar_t /Zc:forScope /Zc:inline /Fo"DEBUG\\" /Fd"DEBUG\VC141.PDB" /Gd /TP /analyze- E:\PROJECTS\GEMIX\GEMIX\TOOLBAR.CPP
^E:\PROJECTS\GEMIX\GEMIX\UTIL.CPP
/c /ZI /nologo /W3 /WX- /diagnostics:classic /Od /Oy- /D WIN32 /D _DEBUG /D _CONSOLE /D _MBCS /Gm /EHsc /RTC1 /MDd /GS /fp:precise /Zc:wchar_t /Zc:forScope /Zc:inline /Fo"DEBUG\\" /Fd"DEBUG\VC141.PDB" /Gd /TP /analyze- E:\PROJECTS\GEMIX\GEMIX\UTIL.CPP
^C:\PROJECTS\VISUAL STUDIO\GEMIX\GEMIX\IMAGETRANFORMATIONS.CPP
/c /ZI /nologo /W3 /WX- /diagnostics:classic /Od /Oy- /D WIN32 /D _DEBUG /D _CONSOLE /D _MBCS /Gm /EHsc /RTC1 /MDd /GS /fp:precise /Zc:wchar_t /Zc:forScope /Zc:inline /Fo"DEBUG\\" /Fd"DEBUG\VC141.PDB" /Gd /TP /analyze- C:\PROJECTS\VISUAL STUDIO\GEMIX\GEMIX\IMAGETRANFORMATIONS.CPP
^C:\PROJECTS\VISUAL STUDIO\GEMIX\GEMIX\MASTER.CPP
/c /ZI /nologo /W3 /WX- /diagnostics:classic /Od /Oy- /D WIN32 /D _DEBUG /D _CONSOLE /D _MBCS /Gm /EHsc /RTC1 /MDd /GS /fp:precise /Zc:wchar_t /Zc:forScope /Zc:inline /Fo"DEBUG\\" /Fd"DEBUG\VC141.PDB" /Gd /TP /analyze- C:\PROJECTS\VISUAL STUDIO\GEMIX\GEMIX\MASTER.CPP
^C:\PROJECTS\VISUAL STUDIO\GEMIX\GEMIX\TEXTURES.CPP
/c /ZI /nologo /W3 /WX- /diagnostics:classic /Od /Oy- /D WIN32 /D _DEBUG /D _CONSOLE /D _MBCS /Gm /EHsc /RTC1 /MDd /GS /fp:precise /Zc:wchar_t /Zc:forScope /Zc:inline /Fo"DEBUG\\" /Fd"DEBUG\VC141.PDB" /Gd /TP /analyze- C:\PROJECTS\VISUAL STUDIO\GEMIX\GEMIX\TEXTURES.CPP
^C:\PROJECTS\VISUAL STUDIO\GEMIX\GEMIX\UTIL.CPP
/c /ZI /nologo /W3 /WX- /diagnostics:classic /Od /Oy- /D WIN32 /D _DEBUG /D _CONSOLE /D _MBCS /Gm /EHsc /RTC1 /MDd /GS /fp:precise /Zc:wchar_t /Zc:forScope /Zc:inline /Fo"DEBUG\\" /Fd"DEBUG\VC141.PDB" /Gd /TP /analyze- C:\PROJECTS\VISUAL STUDIO\GEMIX\GEMIX\UTIL.CPP
^E:\PROJECTS\GEMIX\GEMIX\COLORSTORE.CPP
/c /ZI /nologo /W3 /WX- /diagnostics:classic /Od /Oy- /D WIN32 /D _DEBUG /D _CONSOLE /D _MBCS /Gm /EHsc /RTC1 /MDd /GS /fp:precise /Zc:wchar_t /Zc:forScope /Zc:inline /Fo"DEBUG\\" /Fd"DEBUG\VC141.PDB" /Gd /TP /analyze- E:\PROJECTS\GEMIX\GEMIX\COLORSTORE.CPP
