^E:\PROJECTS\GEMIX\GEMIX\GEMIX.RC
/l"0x0409" /nologo /fo"DEBUG\GEMIX.RES"   E:\PROJECTS\GEMIX\GEMIX\GEMIX.RC
^C:\PROJECTS\VISUAL STUDIO\GEMIX\GEMIX\GEMIX.RC
/l"0x0409" /nologo /fo"DEBUG\GEMIX.RES"   C:\PROJECTS\VISUAL STUDIO\GEMIX\GEMIX\GEMIX.RC
