^E:\PROJECTS\GEMIX\GEMIX\IMAGETRANFORMATIONS.CPP|E:\PROJECTS\GEMIX\GEMIX\MASTER.CPP|E:\PROJECTS\GEMIX\GEMIX\TEXTURES.CPP|E:\PROJECTS\GEMIX\GEMIX\TOOLBAR.CPP|E:\PROJECTS\GEMIX\GEMIX\UTIL.CPP
E:\PROJECTS\GEMIX\GEMIX\X64\DEBUG\VC141.PDB
E:\PROJECTS\GEMIX\GEMIX\X64\DEBUG\VC141.IDB
E:\PROJECTS\GEMIX\GEMIX\X64\DEBUG\TOOLBAR.OBJ
E:\PROJECTS\GEMIX\GEMIX\X64\DEBUG\IMAGETRANFORMATIONS.OBJ
E:\PROJECTS\GEMIX\GEMIX\X64\DEBUG\MASTER.OBJ
E:\PROJECTS\GEMIX\GEMIX\X64\DEBUG\TEXTURES.OBJ
E:\PROJECTS\GEMIX\GEMIX\X64\DEBUG\UTIL.OBJ
^E:\PROJECTS\GEMIX\GEMIX\IMAGETRANFORMATIONS.CPP
E:\PROJECTS\GEMIX\GEMIX\X64\DEBUG\VC141.PDB
^E:\PROJECTS\GEMIX\GEMIX\MASTER.CPP
E:\PROJECTS\GEMIX\GEMIX\X64\DEBUG\VC141.PDB
E:\PROJECTS\GEMIX\GEMIX\X64\DEBUG\VC141.IDB
^E:\PROJECTS\GEMIX\GEMIX\TEXTURES.CPP
E:\PROJECTS\GEMIX\GEMIX\X64\DEBUG\VC141.PDB
^E:\PROJECTS\GEMIX\GEMIX\TOOLBAR.CPP
E:\PROJECTS\GEMIX\GEMIX\X64\DEBUG\VC141.PDB
^E:\PROJECTS\GEMIX\GEMIX\UTIL.CPP
E:\PROJECTS\GEMIX\GEMIX\X64\DEBUG\VC141.PDB
